prasanna,919442640132,https://bit.ly/3rMlRNO,https://bit.ly/3rMlRNO
pradeep,919566940132,https://bit.ly/3rMlRNO,https://bit.ly/3rMlRNO
raja,919384861101,https://bit.ly/3rMlRNO,https://bit.ly/3rMlRNO
rajiv,917204052180,https://bit.ly/3rMlRNO,https://bit.ly/3rMlRNO
Harisha,919825217616,https://bit.ly/3rMlRNO,https://bit.ly/3rMlRNO
Neela,918690558282,https://bit.ly/3rMlRNO,https://bit.ly/3rMlRNO
Sastri,919879793674,https://bit.ly/3rMlRNO,https://bit.ly/3rMlRNO
vinod,919952361618,https://bit.ly/3rMlRNO,https://bit.ly/3rMlRNO